examples/test2.vcd
$timescale 1 ns $end
$scope module top $end
$var wire 1 ! data $end
$upscope $end
$enddefinitions $end
#0
1!
#5000
0!
#64000
1!
#122000
0!
#181000
1!
#239000
0!
#298000
1!
#398000
0!
#499000
1!
#599000
0!
#700000
1!
#801000
0!
#902000
1!
#1002000
0!
#1103000
1!
#1160000
0!
#1219000
1!
#1320000
0!
#1421000
1!
#1521000
0!
#1622000
1!
#1722000
0!
#1823000
1!
#1924000
0!
#2025000
1!
#2125000
0!
#2226000
1!
#2326000
0!
#2427000
1!
#2485000
0!
#2544000
1!
#2644000
0!
#2745000
1!
#2846000
0!
#2947000
1!
#3047000
0!
#3148000
1!
#3248000
0!
#3349000
1!
#3450000
0!
#3550000
1!
#3651000
0!
#3752000
1!
#3852000
0!
#3953000
1!
#4053000
0!
#4154000
1!
#4212000
0!
#4271000
1!
#4371000
0!
#4472000
1!
#4530000
0!
#4589000
1!
#4689000
0!
#4790000
1!
#4891000
0!
#4992000
1!
#5092000
0!
#5193000
1!
#5293000
0!
#5394000
1!
#5452000
0!
#5511000
1!
#5568000
0!
#5628000
1!
#5685000
0!
#5744000
1!
#5802000
0!
#5861000
1!
#5919000
0!
#5978000
1!
#6035000
0!
#6094000
1!
#6152000
0!
#6211000
1!
#6269000
0!
#6328000
1!
#6385000
0!
#6444000
1!
#6502000
0!
#6561000
1!
#6619000
0!
#6678000
1!
#6735000
0!
#6794000
1!
#6852000
0!
#6911000
1!
#6969000
0!
#7028000
1!
#7085000
0!
#7145000
1!
#7202000
0!
#7261000
1!
#7319000
0!
#7378000
1!
#7436000
0!
#7495000
1!
#7552000
0!
#7611000
1!
#7712000
0!
#7813000
1!
#7913000
0!
#8014000
1!
#8114000
0!
#8215000
1!
#8316000
0!
#8416000
1!
#8474000
0!
#8533000
1!
#8634000
0!
#8734000
1!
#8835000
0!
#8936000
1!
#9036000
0!
#9137000
1!
#9237000
0!
#9338000
1!
#9439000
0!
#9540000
1!
#9597000
0!
#9656000
1!
#9757000
0!
#9858000
1!
#9958000
0!
#10059000
1!
#10159000
0!
#10260000
1!
#10361000
0!
#10461000
1!
#10562000
0!
#10663000
1!
#10763000
0!
#10864000
1!
#10964000
0!
#11065000
1!
#11166000
0!
#11267000
1!
#11324000
0!
#11383000
1!
#11484000
0!
#11585000
1!
#11685000
0!
#11786000
1!
#11844000
0!
#11903000
1!
#12003000
0!
#12104000
1!
#12204000
0!
#12305000
1!
#12406000
0!
#12507000
1!
#12607000
0!
#12708000
1!
#12765000
0!
#12824000
1!
#12882000
0!
#12941000
1!
#12999000
0!
#13058000
1!
#13115000
0!
#13175000
1!
#13232000
0!
#13291000
1!
#13349000
0!
#13408000
1!
#13466000
0!
#13525000
1!
#13582000
0!
#13641000
1!
#13699000
0!
#13758000
1!
#13816000
0!
#13875000
1!
#13932000
0!
#13991000
1!
#14049000
0!
#14108000
1!
#14166000
0!
#14225000
1!
#14282000
0!
#14341000
1!
#14399000
0!
#14458000
1!
#14516000
0!
#14575000
1!
#14632000
0!
#14692000
1!
#14749000
0!
#14808000
1!
#14866000
0!
#14925000
1!
#14983000
0!
#15042000
1!
#15099000
0!
#15158000
1!
#15259000
0!
#15360000
1!
#15460000
0!
#15561000
1!
#15661000
0!
#15762000
1!
#15863000
0!
#15963000
1!
#16064000
0!
#16165000
1!
#16265000
0!
#16366000
1!
#16466000
0!
#16567000
1!
#16625000
0!
#16684000
1!
#16784000
0!
#16885000
1!
#16986000
0!
#17087000
1!
#17187000
0!
#17288000
1!
#17345000
0!
#17405000
1!
#17462000
0!
#17521000
1!
#17622000
0!
#17723000
1!
#17823000
0!
#17924000
1!
#18024000
0!
#18125000
1!
#18226000
0!
#18326000
1!
#18427000
0!
#18528000
1!
#18628000
0!
#18729000
1!
#18829000
0!
#18930000
1!
#18988000
0!
#19047000
1!
#19105000
0!
#19164000
1!
#19264000
0!
#19365000
1!
#19465000
0!
#19566000
1!
#19667000
0!
#19768000
1!
#19825000
0!
#19884000
1!
#19985000
0!
#20086000
1!
#20143000
0!
#20202000
1!
#20260000
0!
#20319000
1!
#20377000
0!
#20436000
1!
#20493000
0!
#20552000
1!
#20610000
0!
#20669000
1!
#20727000
0!
#20786000
1!
#20843000
0!
#20902000
1!
#20960000
0!
#21019000
1!
#21077000
0!
#21136000
1!
#21193000
0!
#21252000
1!
#21310000
0!
#21369000
1!
#21427000
0!
#21486000
1!
#21543000
0!
#21603000
1!
#21660000
0!
#21719000
1!
#21777000
0!
#21836000
1!
#21894000
0!
#21953000
1!
#22010000
0!
#22069000
1!
#22127000
0!
#22186000
1!
#22244000
0!
#22303000
1!
#22403000
0!
#22504000
1!
#22604000
0!
#22705000
1!
#22806000
0!
#22907000
1!
#23007000
0!
#23108000
1!
#23208000
0!
#23309000
1!
#23410000
0!
#23510000
1!
#23611000
0!
#23712000
1!
#23769000
0!
#23828000
1!
#23929000
0!
#24030000
1!
#24130000
0!
#24231000
1!
#24289000
0!
#24348000
1!
#24448000
0!
#24549000
1!
#24649000
0!
#24750000
1!
#24851000
0!
#24952000
1!
#25052000
0!
#25153000
1!
#25253000
0!
#25354000
1!
#25455000
0!
#25555000
1!
#25656000
0!
#25757000
1!
#25857000
0!
#25958000
1!
#26016000
0!
#26075000
1!
#26175000
0!
#26276000
1!
#26376000
0!
#26477000
1!
#26578000
0!
#26679000
1!
#26779000
0!
#26880000
1!
#26980000
0!
#27081000
1!
#27139000
0!
#27198000
1!
#27298000
0!
#27399000
1!
#27457000
0!
#27516000
1!
#27573000
0!
#27632000
1!
#27690000
0!
#27749000
1!
#27807000
0!
#27866000
1!
#27923000
0!
#27983000
1!
#28040000
0!
#28099000
1!
#28157000
0!
#28216000
1!
#28274000
0!
#28333000
1!
#28390000
0!
#28449000
1!
#28507000
0!
#28566000
1!
#28624000
0!
#28683000
1!
#28740000
0!
#28799000
1!
#28857000
0!
#28916000
1!
#28974000
0!
#29033000
1!
#29090000
0!
#29149000
1!
#29207000
0!
#29266000
1!
#29324000
0!
#29383000
1!
#29440000
0!
#29500000
1!
#29557000
0!
#29616000
1!
#29674000
0!
#29733000
1!
#29833000
0!
#29934000
1!
#30035000
0!
#30136000
1!
#30236000
0!
#30337000
1!
#30437000
0!
#30538000
1!
#30596000
0!
#30655000
1!
#30755000
0!
#30856000
1!
#30914000
0!
#30973000
1!
#31030000
0!
#31089000
1!
#31190000
0!
#31291000
1!
#31391000
0!
#31492000
1!
#31592000
0!
#31693000
1!
#31751000
0!
#31810000
1!
#31868000
0!
#31927000
1!
#32027000
0!
#32128000
1!
#32228000
0!
#32329000
1!
#32430000
0!
#32531000
1!
#32631000
0!
#32732000
1!
#32832000
0!
#32933000
1!
#33034000
0!
#33134000
1!
#33235000
0!
#33336000
1!
#33393000
0!
#33452000
1!
#33510000
0!
#33569000
1!
#33627000
0!
#33686000
1!
#33786000
0!
#33887000
1!
#33945000
0!
#34004000
1!
#34061000
0!
#34120000
1!
#34221000
0!
#34322000
1!
#34379000
0!
#34438000
1!
#34496000
0!
#34555000
1!
#34613000
0!
#34672000
1!
#34729000
0!
#34789000
1!
#34846000
0!
#34905000
1!
#34963000
0!
#35022000
1!
#35080000
0!
#35139000
1!
#35196000
0!
#35255000
1!
#35313000
0!
#35372000
1!
#35430000
0!
#35489000
1!
#35546000
0!
#35605000
1!
#35663000
0!
#35722000
1!
#35780000
0!
#35839000
1!
#35896000
0!
#35955000
1!
#36013000
0!
#36072000
1!
#36130000
0!
#36189000
1!
#36246000
0!
#36306000
1!
#36363000
0!
#36422000
1!
#36480000
0!
#36539000
1!
#36639000
0!
#36740000
1!
#36841000
0!
#36942000
1!
#37042000
0!
#37143000
1!
#37243000
0!
#37344000
1!
#37402000
0!
#37461000
1!
#37561000
0!
#37662000
1!
#37720000
0!
#37779000
1!
#37836000
0!
#37895000
1!
#37996000
0!
#38097000
1!
#38197000
0!
#38298000
1!
#38356000
0!
#38415000
1!
#38515000
0!
#38616000
1!
#38674000
0!
#38733000
1!
#38790000
0!
#38849000
1!
#38950000
0!
#39051000
1!
#39151000
0!
#39252000
1!
#39352000
0!
#39453000
1!
#39554000
0!
#39655000
1!
#39755000
0!
#39856000
1!
#39913000
0!
#39973000
1!
#40073000
0!
#40174000
1!
#40231000
0!
#40291000
1!
#40391000
0!
#40492000
1!
#40592000
0!
#40693000
1!
#40751000
0!
#40810000
1!
#40867000
0!
#40926000
1!
#41027000
0!
#41128000
1!
#41185000
0!
#41244000
1!
#41302000
0!
#41361000
1!
#41419000
0!
#41478000
1!
#41535000
0!
#41595000
1!
#41652000
0!
#41711000
1!
#41769000
0!
#41828000
1!
#41886000
0!
#41945000
1!
#42002000
0!
#42061000
1!
#42119000
0!
#42178000
1!
#42236000
0!
#42295000
1!
#42352000
0!
#42411000
1!
#42469000
0!
#42528000
1!
#42586000
0!
#42645000
1!
#42702000
0!
#42761000
1!
#42819000
0!
#42878000
1!
#42936000
0!
#42995000
1!
#43052000
0!
#43112000
1!
#43169000
0!
#43228000
1!
#43286000
0!
#43345000
1!
#43403000
0!
#43462000
1!
#43519000
0!
#43578000
1!
#43636000
0!
#43695000
1!
#43795000
0!
#43896000
1!
#43997000
0!
#44098000
1!
#44198000
0!
#44299000
1!
#44399000
0!
#44500000
1!
#44558000
0!
#44617000
1!
#44717000
0!
#44818000
1!
#44918000
0!
#45019000
1!
#45120000
0!
#45221000
1!
#45321000
0!
#45422000
1!
#45522000
0!
#45623000
1!
#45724000
0!
#45825000
1!
#45882000
0!
#45941000
1!
#46042000
0!
#46142000
1!
#46243000
0!
#46344000
1!
#46444000
0!
#46545000
1!
#46645000
0!
#46746000
1!
#46847000
0!
#46948000
1!
#47048000
0!
#47149000
1!
#47249000
0!
#47350000
1!
#47451000
0!
#47552000
1!
#47609000
0!
#47668000
1!
#47769000
0!
#47870000
1!
#47927000
0!
#47986000
1!
#48087000
0!
#48187000
1!
#48288000
0!
#48389000
1!
#48489000
0!
#48590000
1!
#48690000
0!
#48791000
1!
#48849000
0!
#48908000
1!
#48966000
0!
#49025000
1!
#49082000
0!
#49141000
1!
#49199000
0!
#49258000
1!
#49316000
0!
#49375000
1!
#49432000
0!
#49492000
1!
#49549000
0!
#49608000
1!
#49666000
0!
#49725000
1!
#49783000
0!
#49842000
1!
#49899000
0!
#49958000
1!
#50016000
0!
#50075000
1!
#50133000
0!
#50192000
1!
#50249000
0!
#50308000
1!
#50366000
0!
#50425000
1!
#50483000
0!
#50542000
1!
#50599000
0!
#50658000
1!
#50716000
0!
#50775000
1!
#50833000
0!
#50892000
1!
#50949000
0!
#51009000
1!
#51066000
0!
#51125000
1!
#51226000
0!
#51326000
1!
#51427000
0!
#51528000
1!
#51628000
0!
#51729000
1!
#51829000
0!
#51930000
1!
#51988000
0!
#52047000
1!
#52147000
0!
#52248000
1!
#52349000
0!
#52450000
1!
#52550000
0!
#52651000
1!
#52751000
0!
#52852000
1!
#52953000
0!
#53053000
1!
#53111000
0!
#53170000
1!
#53271000
0!
#53371000
1!
#53429000
0!
#53488000
1!
#53546000
0!
#53605000
1!
#53705000
0!
#53806000
1!
#53907000
0!
#54007000
1!
#54108000
0!
#54209000
1!
#54309000
0!
#54410000
1!
#54510000
0!
#54611000
1!
#54669000
0!
#54728000
1!
#54828000
0!
#54929000
1!
#54987000
0!
#55046000
1!
#55146000
0!
#55247000
1!
#55348000
0!
#55449000
1!
#55549000
0!
#55650000
1!
#55750000
0!
#55851000
1!
#55952000
0!
#56052000
1!
#56110000
0!
#56169000
1!
#56227000
0!
#56286000
1!
#56343000
0!
#56402000
1!
#56460000
0!
#56519000
1!
#56577000
0!
#56636000
1!
#56693000
0!
#56753000
1!
#56810000
0!
#56869000
1!
#56927000
0!
#56986000
1!
#57044000
0!
#57103000
1!
#57160000
0!
#57219000
1!
#57277000
0!
#57336000
1!
#57394000
0!
#57453000
1!
#57510000
0!
#57569000
1!
#57627000
0!
#57686000
1!
#57744000
0!
#57803000
1!
#57860000
0!
#57919000
1!
#57977000
0!
#58036000
1!
#58094000
0!
#58153000
1!
#58210000
0!
#58269000
1!
#58327000
0!
#58386000
1!
#58444000
0!
#58503000
1!
#58560000
0!
#58620000
1!
#58720000
0!
#58821000
1!
#58921000
0!
#59022000
1!
#59123000
0!
#59223000
1!
#59324000
0!
#59425000
1!
#59525000
0!
#59626000
1!
#59726000
0!
#59827000
1!
#59928000
0!
#60029000
1!
#60086000
0!
#60145000
1!
#60246000
0!
#60347000
1!
#60447000
0!
#60548000
1!
#60648000
0!
#60749000
1!
#60807000
0!
#60866000
1!
#60923000
0!
#60983000
1!
#61083000
0!
#61184000
1!
#61284000
0!
#61385000
1!
#61486000
0!
#61586000
1!
#61687000
0!
#61788000
1!
#61888000
0!
#61989000
1!
#62089000
0!
#62190000
1!
#62291000
0!
#62392000
1!
#62449000
0!
#62508000
1!
#62566000
0!
#62625000
1!
#62725000
0!
#62826000
1!
#62927000
0!
#63028000
1!
#63128000
0!
#63229000
1!
#63286000
0!
#63346000
1!
#63446000
0!
#63547000
1!
#63604000
0!
#63663000
1!
#63721000
0!
#63780000
1!
#63838000
0!
#63897000
1!
#63954000
0!
#64014000
1!
#64071000
0!
#64130000
1!
#64188000
0!
#64247000
1!
#64305000
0!
#64364000
1!
#64421000
0!
#64480000
1!
#64538000
0!
#64597000
1!
#64655000
0!
#64714000
1!
#64771000
0!
#64830000
1!
#64888000
0!
#64947000
1!
#65005000
0!
#65064000
1!
#65121000
0!
#65180000
1!
#65238000
0!
#65297000
1!
#65355000
0!
#65414000
1!
#65471000
0!
#65531000
1!
#65588000
0!
#65647000
1!
#65705000
0!
#65764000
1!
#65864000
0!
#65965000
1!
#66066000
0!
#66166000
1!
#66267000
0!
#66368000
1!
#66468000
0!
#66569000
1!
#66669000
0!
#66770000
1!
#66871000
0!
#66972000
1!
#67072000
0!
#67173000
1!
#67231000
0!
#67290000
1!
#67390000
0!
#67491000
1!
#67591000
0!
#67692000
1!
#67750000
0!
#67809000
1!
#67909000
0!
#68010000
1!
#68068000
0!
#68127000
1!
#68184000
0!
#68244000
1!
#68344000
0!
#68445000
1!
#68545000
0!
#68646000
1!
#68747000
0!
#68847000
1!
#68948000
0!
#69049000
1!
#69149000
0!
#69250000
1!
#69308000
0!
#69367000
1!
#69467000
0!
#69568000
1!
#69626000
0!
#69685000
1!
#69742000
0!
#69801000
1!
#69902000
0!
#70003000
1!
#70103000
0!
#70204000
1!
#70262000
0!
#70321000
1!
#70421000
0!
#70522000
1!
#70580000
0!
#70639000
1!
#70696000
0!
#70755000
1!
#70813000
0!
#70872000
1!
#70930000
0!
#70989000
1!
#71046000
0!
#71105000
1!
#71163000
0!
#71222000
1!
#71280000
0!
#71339000
1!
#71396000
0!
#71455000
1!
#71513000
0!
#71572000
1!
#71630000
0!
#71689000
1!
#71746000
0!
#71805000
1!
#71863000
0!
#71922000
1!
#71980000
0!
#72039000
1!
#72096000
0!
#72156000
1!
#72213000
0!
#72272000
1!
#72330000
0!
#72389000
1!
#72447000
0!
#72506000
1!
#72563000
0!
#72622000
1!
#72680000
0!
#72739000
1!
#72797000
0!
#72856000
1!
#72913000
0!
#72972000
1!
#73030000
0!
#73089000
1!
#73189000
0!
#73290000
1!
#73391000
0!
#73492000
1!
#73592000
0!
#73693000
1!
#73793000
0!
#73894000
1!
#73952000
0!
#74011000
1!
#74111000
0!
#74212000
1!
#74270000
0!
#74329000
1!
#74387000
0!
#74446000
1!
#74546000
0!
#74647000
1!
#74747000
0!
#74848000
1!
#74949000
0!
#75049000
1!
#75107000
0!
#75166000
1!
#75224000
0!
#75283000
1!
#75383000
0!
#75484000
1!
#75585000
0!
#75685000
1!
#75786000
0!
#75887000
1!
#75987000
0!
#76088000
1!
#76188000
0!
#76289000
1!
#76390000
0!
#76491000
1!
#76591000
0!
#76692000
1!
#76749000
0!
#76809000
1!
#76866000
0!
#76925000
1!
#76983000
0!
#77042000
1!
#77142000
0!
#77243000
1!
#77301000
0!
#77360000
1!
#77418000
0!
#77477000
1!
#77577000
0!
#77678000
1!
#77735000
0!
#77795000
1!
#77852000
0!
#77911000
1!
#77969000
0!
#78028000
1!
#78086000
0!
#78145000
1!
#78202000
0!
#78261000
1!
#78319000
0!
#78378000
1!
#78436000
0!
#78495000
1!
#78552000
0!
#78611000
1!
#78669000
0!
#78728000
1!
#78786000
0!
#78845000
1!
#78902000
0!
#78961000
1!
#79019000
0!
#79078000
1!
#79136000
0!
#79195000
1!
#79252000
0!
#79312000
1!
#79369000
0!
#79428000
1!
#79486000
0!
#79545000
1!
#79603000
0!
#79662000
1!
#79719000
0!
#79778000
1!
#79879000
0!
#79980000
1!
#80080000
0!
#80181000
1!
#80281000
0!
#80382000
1!
#80483000
0!
#80583000
1!
#80641000
0!
#80700000
1!
#80801000
0!
#80901000
1!
#80959000
0!
#81018000
1!
#81076000
0!
#81135000
1!
#81235000
0!
#81336000
1!
#81436000
0!
#81537000
1!
#81595000
0!
#81654000
1!
#81754000
0!
#81855000
1!
#81956000
0!
#82057000
1!
#82157000
0!
#82258000
1!
#82358000
0!
#82459000
1!
#82560000
0!
#82661000
1!
#82761000
0!
#82862000
1!
#82962000
0!
#83063000
1!
#83163000
0!
#83264000
1!
#83322000
0!
#83381000
1!
#83481000
0!
#83582000
1!
#83683000
0!
#83784000
1!
#83841000
0!
#83900000
1!
#84001000
0!
#84102000
1!
#84159000
0!
#84218000
1!
#84276000
0!
#84335000
1!
#84435000
0!
#84536000
1!
#84594000
0!
#84653000
1!
#84711000
0!
#84770000
1!
#84827000
0!
#84886000
1!
#84944000
0!
#85003000
1!
#85061000
0!
#85120000
1!
#85177000
0!
#85236000
1!
#85294000
0!
#85353000
1!
#85411000
0!
#85470000
1!
#85527000
0!
#85586000
1!
#85644000
0!
#85703000
1!
#85761000
0!
#85820000
1!
#85877000
0!
#85937000
1!
#85994000
0!
#86053000
1!
#86111000
0!
#86170000
1!
#86228000
0!
#86287000
1!
#86344000
0!
#86403000
1!
#86461000
0!
#86520000
1!
#86578000
0!
#86637000
1!
#86694000
0!
#86753000
1!
#86811000
0!
#86870000
1!
#86970000
0!
#87071000
1!
#87172000
0!
#87273000
1!
#87373000
0!
#87474000
1!
#87574000
0!
#87675000
1!
#87733000
0!
#87792000
1!
#87892000
0!
#87993000
1!
#88094000
0!
#88194000
1!
#88295000
0!
#88396000
1!
#88496000
0!
#88597000
1!
#88697000
0!
#88798000
1!
#88899000
0!
#89000000
1!
#89057000
0!
#89116000
1!
#89217000
0!
#89318000
1!
#89418000
0!
#89519000
1!
#89619000
0!
#89720000
1!
#89821000
0!
#89921000
1!
#90022000
0!
#90123000
1!
#90223000
0!
#90324000
1!
#90424000
0!
#90525000
1!
#90626000
0!
#90727000
1!
#90784000
0!
#90843000
1!
#90944000
0!
#91045000
1!
#91102000
0!
#91161000
1!
#91262000
0!
#91363000
1!
#91463000
0!
#91564000
1!
#91664000
0!
#91765000
1!
#91866000
0!
#91966000
1!
#92024000
0!
#92083000
1!
#92141000
0!
#92200000
1!
#92257000
0!
#92317000
1!
#92374000
0!
#92433000
1!
#92491000
0!
#92550000
1!
#92608000
0!
#92667000
1!
#92724000
0!
#92783000
1!
#92841000
0!
#92900000
1!
#92958000
0!
#93017000
1!
#93074000
0!
#93133000
1!
#93191000
0!
#93250000
1!
#93308000
0!
#93367000
1!
#93424000
0!
#93483000
1!
#93541000
0!
#93600000
1!
#93658000
0!
#93717000
1!
#93774000
0!
#93833000
1!
#93891000
0!
#93950000
1!
#94008000
0!
#94067000
1!
#94124000
0!
#94184000
1!
#94284000
0!
#94385000
1!
#94485000
0!
#94586000
1!
#94687000
0!
#94787000
1!
#94888000
0!
#94989000
1!
#95046000
0!
#95105000
1!
#95206000
0!
#95307000
1!
#95407000
0!
#95508000
1!
#95608000
0!
#95709000
1!
#95810000
0!
#95911000
1!
#96011000
0!
#96112000
1!
#96169000
0!
#96229000
1!
#96329000
0!
#96430000
1!
#96530000
0!
#96631000
1!
#96731000
0!
#96832000
1!
#96933000
0!
#97034000
1!
#97134000
0!
#97235000
1!
#97335000
0!
#97436000
1!
#97537000
0!
#97638000
1!
#97738000
0!
#97839000
1!
#97896000
0!
#97955000
1!
#98056000
0!
#98157000
1!
#98257000
0!
#98358000
1!
#98416000
0!
#98475000
1!
#98575000
0!
#98676000
1!
#98776000
0!
#98877000
1!
#98978000
0!
#99079000
1!
#99179000
0!
#99280000
1!
#99338000
0!
#99397000
1!
#99454000
0!
#99513000
1!
#99571000
0!
#99630000
1!
#99688000
0!
#99747000
1!
#99804000
0!
#99863000
1!
#99921000
0!
#99980000
1!
#100038000
0!
#100097000
1!
#100154000
0!
#100213000
1!
#100271000
0!
#100330000
1!
#100388000
0!
#100447000
1!
#100504000
0!
#100564000
1!
#100621000
0!
#100680000
1!
#100738000
0!
#100797000
1!
#100855000
0!
#100914000
1!
#100971000
0!
#101030000
1!
#101088000
0!
#101147000
1!
#101205000
0!
#101264000
1!
#101321000
0!
#101380000
1!
#101438000
0!
#101497000
1!
#101555000
0!
#101614000
1!
#101671000
0!
#101730000
1!
#101831000
0!
#101932000
1!
#102032000
0!
#102133000
1!
#102233000
0!
#102334000
1!
#102435000
0!
#102536000
1!
#102636000
0!
#102737000
1!
#102837000
0!
#102938000
1!
#103039000
0!
#103139000
1!
#103197000
0!
#103256000
1!
#103357000
0!
#103457000
1!
#103558000
0!
#103659000
1!
#103759000
0!
#103860000
1!
#103918000
0!
#103977000
1!
#104034000
0!
#104093000
1!
#104194000
0!
#104295000
1!
#104395000
0!
#104496000
1!
#104596000
0!
#104697000
1!
#104798000
0!
#104899000
1!
#104999000
0!
#105100000
1!
#105200000
0!
#105301000
1!
#105402000
0!
#105502000
1!
#105560000
0!
#105619000
1!
#105677000
0!
#105736000
1!
#105836000
0!
#105937000
1!
#106037000
0!
#106138000
1!
#106239000
0!
#106340000
1!
#106397000
0!
#106456000
1!
#106557000
0!
#106658000
1!
#106715000
0!
#106774000
1!
#106832000
0!
#106891000
1!
#106949000
0!
#107008000
1!
#107065000
0!
#107124000
1!
#107182000
0!
#107241000
1!
#107299000
0!
#107358000
1!
#107415000
0!
#107474000
1!
#107532000
0!
#107591000
1!
#107649000
0!
#107708000
1!
#107765000
0!
#107825000
1!
#107882000
0!
#107941000
1!
#107999000
0!
#108058000
1!
#108116000
0!
#108175000
1!
#108232000
0!
#108291000
1!
#108349000
0!
#108408000
1!
#108466000
0!
#108525000
1!
#108582000
0!
#108641000
1!
#108699000
0!
#108758000
1!
#108816000
0!
#108875000
1!
#108975000
0!
#109076000
1!
#109176000
0!
#109277000
1!
#109378000
0!
#109479000
1!
#109579000
0!
#109680000
1!
#109780000
0!
#109881000
1!
#109982000
0!
#110082000
1!
#110183000
0!
#110284000
1!
#110341000
0!
#110400000
1!
#110501000
0!
#110602000
1!
#110702000
0!
#110803000
1!
#110861000
0!
#110920000
1!
#111020000
0!
#111121000
1!
#111221000
0!
#111322000
1!
#111423000
0!
#111524000
1!
#111624000
0!
#111725000
1!
#111825000
0!
#111926000
1!
#112027000
0!
#112127000
1!
#112228000
0!
#112329000
1!
#112429000
0!
#112530000
1!
#112588000
0!
#112647000
1!
#112747000
0!
#112848000
1!
#112948000
0!
#113049000
1!
#113150000
0!
#113251000
1!
#113351000
0!
#113452000
1!
#113552000
0!
#113653000
1!
#113711000
0!
#113770000
1!
#113870000
0!
#113971000
1!
#114029000
0!
#114088000
1!
#114146000
0!
#114205000
1!
#114262000
0!
#114321000
1!
#114379000
0!
#114438000
1!
#114496000
0!
#114555000
1!
#114612000
0!
#114671000
1!
#114729000
0!
#114788000
1!
#114846000
0!
#114905000
1!
#114962000
0!
#115021000
1!
#115079000
0!
#115138000
1!
#115196000
0!
#115255000
1!
#115312000
0!
#115371000
1!
#115429000
0!
#115488000
1!
#115546000
0!
#115605000
1!
#115662000
0!
#115722000
1!
#115779000
0!
#115838000
1!
#115896000
0!
#115955000
1!
#116013000
0!
#116072000
1!
#116129000
0!
#116188000
1!
#116246000
0!
#116305000
1!
#116363000
0!
#116422000
1!
#116522000
0!
#116623000
1!
#116723000
0!
#116824000
1!
#116925000
0!
#117026000
1!
#117126000
0!
#117227000
1!
#117284000
0!
#117344000
1!
#117444000
0!
#117545000
1!
#117602000
0!
#117662000
1!
#117719000
0!
#117778000
1!
#117879000
0!
#117980000
1!
#118080000
0!
#118181000
1!
#118281000
0!
#118382000
1!
#118440000
0!
#118499000
1!
#118556000
0!
#118615000
1!
#118716000
0!
#118817000
1!
#118917000
0!
#119018000
1!
#119118000
0!
#119219000
1!
#119320000
0!
#119421000
1!
#119521000
0!
#119622000
1!
#119722000
0!
#119823000
1!
#119924000
0!
#120024000
1!
#120082000
0!
#120141000
1!
#120199000
0!
#120258000
1!
#120315000
0!
#120375000
1!
#120475000
0!
#120576000
1!
#120633000
0!
#120693000
1!
#120750000
0!
#120809000
1!
#120910000
0!
#121011000
1!
#121068000
0!
#121127000
1!
#121185000
0!
#121244000
1!
#121302000
0!
#121361000
1!
#121418000
0!
#121477000
1!
#121535000
0!
#121594000
1!
#121652000
0!
#121711000
1!
#121768000
0!
#121827000
1!
#121885000
0!
#121944000
1!
#122002000
0!
#122061000
1!
#122118000
0!
#122177000
1!
#122235000
0!
#122294000
1!
#122352000
0!
#122411000
1!
#122468000
0!
#122527000
1!
#122585000
0!
#122644000
1!
#122702000
0!
#122761000
1!
#122818000
0!
#122878000
1!
#122935000
0!
#122994000
1!
#123052000
0!
#123111000
1!
#123169000
0!
#123228000
1!
#123328000
0!
#123429000
1!
#123529000
0!
#123630000
1!
#123731000
0!
#123831000
1!
#123932000
0!
#124033000
1!
#124090000
0!
#124149000
1!
#124250000
0!
#124351000
1!
#124408000
0!
#124467000
1!
#124525000
0!
#124584000
1!
#124685000
0!
#124785000
1!
#124886000
0!
#124987000
1!
#125044000
0!
#125103000
1!
#125204000
0!
#125305000
1!
#125362000
0!
#125421000
1!
#125479000
0!
#125538000
1!
#125639000
0!
#125739000
1!
#125840000
0!
#125941000
1!
#126041000
0!
#126142000
1!
#126242000
0!
#126343000
1!
#126444000
0!
#126545000
1!
#126602000
0!
#126661000
1!
#126762000
0!
#126863000
1!
#126920000
0!
#126979000
1!
#127080000
0!
#127181000
1!
#127281000
0!
#127382000
1!
#127439000
0!
#127498000
1!
#127556000
0!
#127615000
1!
#127716000
0!
#127816000
1!
#127874000
0!
#127933000
1!
#127991000
0!
#128050000
1!
#128107000
0!
#128167000
1!
#128224000
0!
#128283000
1!
#128341000
0!
#128400000
1!
#128458000
0!
#128517000
1!
#128574000
0!
#128633000
1!
#128691000
0!
#128750000
1!
#128808000
0!
#128867000
1!
#128924000
0!
#128983000
1!
#129041000
0!
#129100000
1!
#129158000
0!
#129217000
1!
#129274000
0!
#129333000
1!
#129391000
0!
#129450000
1!
#129508000
0!
#129567000
1!
#129624000
0!
#129684000
1!
#129741000
0!
#129800000
1!
#129858000
0!
#129917000
1!
#129975000
0!
#130034000
1!
#130091000
0!
#130150000
1!
#130208000
0!
#130267000
1!
#130367000
0!
#130468000
1!
#130569000
0!
#130670000
1!
#130770000
0!
#130871000
1!
#130971000
0!
#131072000
1!
#131130000
0!
#131189000
1!
#131289000
0!
#131390000
1!
#131491000
0!
#131591000
1!
#131692000
0!
#131793000
1!
#131893000
0!
#131994000
1!
#132094000
0!
#132195000
1!
#132296000
0!
#132397000
1!
#132454000
0!
#132513000
1!
#132614000
0!
#132715000
1!
#132815000
0!
#132916000
1!
#133016000
0!
#133117000
1!
#133218000
0!
#133318000
1!
#133419000
0!
#133520000
1!
#133620000
0!
#133721000
1!
#133821000
0!
#133922000
1!
#134023000
0!
#134124000
1!
#134181000
0!
#134240000
1!
#134341000
0!
#134442000
1!
#134499000
0!
#134558000
1!
#134659000
0!
#134760000
1!
#134860000
0!
#134961000
1!
#135061000
0!
#135162000
1!
#135263000
0!
#135363000
1!
#135421000
0!
#135480000
1!
#135538000
0!
#135597000
1!
#135654000
0!
#135713000
1!
#135771000
0!
#135830000
1!
#135888000
0!
#135947000
1!
#136005000
0!
#136064000
1!
#136121000
0!
#136180000
1!
#136238000
0!
#136297000
1!
#136355000
0!
#136414000
1!
#136471000
0!
#136530000
1!
#136588000
0!
#136647000
1!
#136705000
0!
#136764000
1!
#136821000
0!
#136880000
1!
#136938000
0!
#136997000
1!
#137055000
0!
#137114000
1!
#137171000
0!
#137230000
1!
#137288000
0!
#137347000
1!
#137405000
0!
#137464000
1!
#137521000
0!
#137581000
1!
#137681000
0!
#137782000
1!
#137882000
0!
#137983000
1!
#138084000
0!
#138184000
1!
#138285000
0!
#138386000
1!
#138443000
0!
#138502000
1!
#138603000
0!
#138704000
1!
#138804000
0!
#138905000
1!
#139005000
0!
#139106000
1!
#139207000
0!
#139308000
1!
#139408000
0!
#139509000
1!
#139566000
0!
#139626000
1!
#139726000
0!
#139827000
1!
#139884000
0!
#139944000
1!
#140001000
0!
#140060000
1!
#140161000
0!
#140262000
1!
#140362000
0!
#140463000
1!
#140563000
0!
#140664000
1!
#140765000
0!
#140865000
1!
#140966000
0!
#141067000
1!
#141124000
0!
#141183000
1!
#141284000
0!
#141385000
1!
#141442000
0!
#141501000
1!
#141602000
0!
#141703000
1!
#141803000
0!
#141904000
1!
#142004000
0!
#142105000
1!
#142206000
0!
#142306000
1!
#142407000
0!
#142508000
1!
#142565000
0!
#142624000
1!
#142682000
0!
#142741000
1!
#142799000
0!
#142858000
1!
#142915000
0!
#142975000
1!
#143032000
0!
#143091000
1!
#143149000
0!
#143208000
1!
#143266000
0!
#143325000
1!
#143382000
0!
#143441000
1!
#143499000
0!
#143558000
1!
#143616000
0!
#143675000
1!
#143732000
0!
#143791000
1!
